{
	"info": {
		"_postman_id": "cccb1654-d9f0-4947-b9d8-2aa6e1cce297",
		"name": "Blazedemo",
		"schema": "https://schema.getpostman.com/json/collection/v2.1.0/collection.json"
	},
	"item": [
		{
			"name": "HomePage",
			"request": {
				"method": "GET",
				"header": [],
				"url": {
					"raw": "https://blazedemo.com/",
					"protocol": "https",
					"host": [
						"blazedemo",
						"com"
					],
					"path": [
						""
					]
				}
			},
			"response": []
		},
		{
			"name": "Reserve",
			"request": {
				"method": "GET",
				"header": [],
				"url": {
					"raw": "https://blazedemo.com/reserve.php",
					"protocol": "https",
					"host": [
						"blazedemo",
						"com"
					],
					"path": [
						"reserve.php"
					]
				}
			},
			"response": []
		}
	]
}